crop_factor,abs_rel,sq_rel,rmse,rmse_log,a1,a2,a3
0.0,0.27000398029386996,9.118592134475708,38.49824355506897,0.4847958392202854,0.5238740159663384,0.7861324350770569,0.8804374621947366
0.02,0.26510464869439604,9.020517985582352,38.35792634010315,0.47905351424217224,0.5337992950693903,0.7917319554418067,0.8830529871067564
0.04,0.2593660248667002,8.96069271016121,38.29713950157166,0.4756558268368244,0.5487393422875702,0.7954534425899618,0.8839239922287583
0.06,0.25027420073747636,8.773453254938126,37.80591971969604,0.4695818589925766,0.5715772515983862,0.7998105352956116,0.8846748819777377
0.08,0.24134281048178674,8.557408604383468,37.24756016731262,0.46029571959376336,0.5934206249996139,0.8051059046710777,0.8871403478025867
0.1,0.23307856865227222,8.352204293489455,36.73025769042969,0.45148687264323234,0.6113617730247399,0.8101406799314779,0.8903212766900944
0.12,0.22766841566562654,8.186707395553588,36.31404781341553,0.4443648036420345,0.6234725180694884,0.8145219892232529,0.8927176017484079
0.14,0.22291287034749985,8.046140758275985,35.984879961013796,0.43855122247338296,0.6332445075534577,0.8196187240370998,0.8950864331799474
0.16,0.2184554846137762,7.899340659141541,35.65647186088562,0.4329774056971073,0.6440037304458639,0.824655308758655,0.8980166664204667
0.18,0.21474419942498207,7.739949668288231,35.30100253295898,0.4276969250738621,0.6520197641284877,0.8290946207518674,0.9010770245578753
0.2,0.21084881550073623,7.574237707257271,34.94438870048523,0.42252593517303466,0.6612019940990966,0.833844351901164,0.9047191505382021
