crop_factor,crop_rel_abs,abs_rel,sq_rel,rmse,rmse_log,a1,a2,a3
0.0,0.2781879218518734,0.27000398029386996,9.118592134475708,38.49824355506897,0.4847958392202854,0.5238740159663384,0.7861324350770569,0.8804374621947366
0.02,0.28025327502191066,0.2709391861110926,8.60118024200201,34.70660710954666,0.4642100748717785,0.5172656702806671,0.7854433875685026,0.8807826056900917
0.04,0.28071295268833635,0.27087613558769225,8.394823046803474,33.37295402097702,0.45451111799478533,0.5144712205982731,0.7844475870328526,0.8805671444879838
0.06,0.2816504468619824,0.27223768655955793,8.576730841755866,33.79304870223999,0.4589279883801937,0.5130795301726859,0.7802804951016797,0.8777925374486529
0.08,0.2838934544324875,0.275334387794137,8.780333037257195,34.29969957685471,0.46378407734632493,0.5044828035369608,0.7757615465558687,0.8757803866425661
0.1,0.28694202126562596,0.2794198899269104,9.038643036961556,34.88903216457367,0.4694137297570705,0.49794206673552444,0.7712214016187637,0.8732745605107124
0.12,0.2897541252076626,0.2836351996511221,9.334381485223771,35.53288546323776,0.47592995810508726,0.49128496219799395,0.7670065807455442,0.8694027692585998
0.14,0.29372440586984155,0.2895364638864994,9.634581357896328,36.18165353488922,0.48337158343195913,0.4792478749634192,0.7581466515892,0.8656018553968913
0.16,0.29808027364313605,0.2954178160876036,9.95883317232132,36.883621868133545,0.49067224478721616,0.4680062063780886,0.7519995460235238,0.8625031668554718
0.18,0.3045161815136671,0.3033615688085556,10.32294257414341,37.628648376464845,0.4991264805495739,0.45330478608200603,0.743263456088914,0.8583449196919886
0.2,0.31222612473368644,0.3130676282942295,10.7428567186594,38.471371848583225,0.5091617902815342,0.43514886834702066,0.7321778722236613,0.8531506989626995
