crop_factor,abs_rel,sq_rel,rmse,rmse_log,a1,a2,a3
0.0,0.04072904586791992,0.19192355871200562,2.824042558670044,0.07365076243877411,0.9746226471826327,0.9980155150640447,0.9998797281856997
0.02,0.039140067994594574,0.20128460228443146,2.890613079071045,0.07458923757076263,0.9748139327180708,0.9972610896100029,0.9998809169395654
0.04,0.03880481421947479,0.18364982306957245,2.7458672523498535,0.07283329963684082,0.975542843801074,0.9972565958440346,0.9996497781928555
0.06,0.03810495883226395,0.16729862987995148,2.5750346183776855,0.07081665098667145,0.9772353907533443,0.9970077446608777,0.9998826566533677
0.08,0.039613038301467896,0.14630888402462006,2.3026771545410156,0.07188614457845688,0.9760383386581469,0.9974897307165678,0.9998288452761296
0.1,0.04425973445177078,0.19442062079906464,2.63505482673645,0.081721730530262,0.963886548722269,0.9960685200786296,0.9997753440044931
0.12,0.04365905746817589,0.20274490118026733,2.66754412651062,0.08145364373922348,0.9596190041635773,0.9967489876233389,0.9998288940854388
0.14,0.039799727499485016,0.1737644374370575,2.4769742488861084,0.07556592673063278,0.9679977343528745,0.9968847352024922,0.9998300764655905
0.16,0.040796417742967606,0.1814768761396408,2.5557260513305664,0.0762447714805603,0.9669117647058824,0.9963775951557093,0.9999459342560554
0.18,0.039805494248867035,0.16479676961898804,2.3944430351257324,0.07544422894716263,0.9738050229543613,0.9961652714015663,0.9998919794761004
0.2,0.040300361812114716,0.16395433247089386,2.3514578342437744,0.07481098920106888,0.9756175638905191,0.9959451528570666,1.0
